^C:\USERS\USER\DESKTOP\DT170_GAMEPROJECT\TERM1\DUCKLINGSENGINE\DUCKLINGSENGINE\DUCKLINGSENGINE\RELEASE\ASSETMANAGER.OBJ|C:\USERS\USER\DESKTOP\DT170_GAMEPROJECT\TERM1\DUCKLINGSENGINE\DUCKLINGSENGINE\DUCKLINGSENGINE\RELEASE\BOXCOLLIDER.OBJ|C:\USERS\USER\DESKTOP\DT170_GAMEPROJECT\TERM1\DUCKLINGSENGINE\DUCKLINGSENGINE\DUCKLINGSENGINE\RELEASE\CIRCLECOLLIDER.OBJ|C:\USERS\USER\DESKTOP\DT170_GAMEPROJECT\TERM1\DUCKLINGSENGINE\DUCKLINGSENGINE\DUCKLINGSENGINE\RELEASE\COLLIDER.OBJ|C:\USERS\USER\DESKTOP\DT170_GAMEPROJECT\TERM1\DUCKLINGSENGINE\DUCKLINGSENGINE\DUCKLINGSENGINE\RELEASE\COLLIDERMANAGER.OBJ|C:\USERS\USER\DESKTOP\DT170_GAMEPROJECT\TERM1\DUCKLINGSENGINE\DUCKLINGSENGINE\DUCKLINGSENGINE\RELEASE\EDGECOLLIDER.OBJ|C:\USERS\USER\DESKTOP\DT170_GAMEPROJECT\TERM1\DUCKLINGSENGINE\DUCKLINGSENGINE\DUCKLINGSENGINE\RELEASE\ENGINE.OBJ|C:\USERS\USER\DESKTOP\DT170_GAMEPROJECT\TERM1\DUCKLINGSENGINE\DUCKLINGSENGINE\DUCKLINGSENGINE\RELEASE\ENTITYMANAGER.OBJ|C:\USERS\USER\DESKTOP\DT170_GAMEPROJECT\TERM1\DUCKLINGSENGINE\DUCKLINGSENGINE\DUCKLINGSENGINE\RELEASE\GAMEOBJECT.OBJ|C:\USERS\USER\DESKTOP\DT170_GAMEPROJECT\TERM1\DUCKLINGSENGINE\DUCKLINGSENGINE\DUCKLINGSENGINE\RELEASE\INPUT.OBJ|C:\USERS\USER\DESKTOP\DT170_GAMEPROJECT\TERM1\DUCKLINGSENGINE\DUCKLINGSENGINE\DUCKLINGSENGINE\RELEASE\MAIN.OBJ|C:\USERS\USER\DESKTOP\DT170_GAMEPROJECT\TERM1\DUCKLINGSENGINE\DUCKLINGSENGINE\DUCKLINGSENGINE\RELEASE\OBJECT.OBJ|C:\USERS\USER\DESKTOP\DT170_GAMEPROJECT\TERM1\DUCKLINGSENGINE\DUCKLINGSENGINE\DUCKLINGSENGINE\RELEASE\PHYSICTESTSCENE.OBJ|C:\USERS\USER\DESKTOP\DT170_GAMEPROJECT\TERM1\DUCKLINGSENGINE\DUCKLINGSENGINE\DUCKLINGSENGINE\RELEASE\RIGIDBODY.OBJ|C:\USERS\USER\DESKTOP\DT170_GAMEPROJECT\TERM1\DUCKLINGSENGINE\DUCKLINGSENGINE\DUCKLINGSENGINE\RELEASE\SCENEMANAGER.OBJ|C:\USERS\USER\DESKTOP\DT170_GAMEPROJECT\TERM1\DUCKLINGSENGINE\DUCKLINGSENGINE\DUCKLINGSENGINE\RELEASE\SPRITEMANAGER.OBJ|C:\USERS\USER\DESKTOP\DT170_GAMEPROJECT\TERM1\DUCKLINGSENGINE\DUCKLINGSENGINE\DUCKLINGSENGINE\RELEASE\TIME.OBJ|C:\USERS\USER\DESKTOP\DT170_GAMEPROJECT\TERM1\DUCKLINGSENGINE\DUCKLINGSENGINE\DUCKLINGSENGINE\RELEASE\TRANSFORM.OBJ|C:\USERS\USER\DESKTOP\DT170_GAMEPROJECT\TERM1\DUCKLINGSENGINE\DUCKLINGSENGINE\DUCKLINGSENGINE\RELEASE\UNIQUE.OBJ|C:\USERS\USER\DESKTOP\DT170_GAMEPROJECT\TERM1\DUCKLINGSENGINE\DUCKLINGSENGINE\DUCKLINGSENGINE\RELEASE\ZUMA.OBJ
C:\USERS\USER\DESKTOP\DT170_GAMEPROJECT\TERM1\DUCKLINGSENGINE\DUCKLINGSENGINE\RESOURCE\SDL2-2.0.5\LIB\X86\SDL2MAIN.LIB
C:\USERS\USER\DESKTOP\DT170_GAMEPROJECT\TERM1\DUCKLINGSENGINE\DUCKLINGSENGINE\RESOURCE\SDL2-2.0.5\LIB\X86\SDL2.LIB
C:\PROGRAM FILES (X86)\WINDOWS KITS\10\LIB\10.0.16299.0\UM\X86\OPENGL32.LIB
C:\USERS\USER\DESKTOP\DT170_GAMEPROJECT\TERM1\DUCKLINGSENGINE\DUCKLINGSENGINE\RESOURCE\GLEW\LIB\RELEASE\WIN32\GLEW32.LIB
C:\USERS\USER\DESKTOP\DT170_GAMEPROJECT\TERM1\DUCKLINGSENGINE\DUCKLINGSENGINE\RESOURCE\GLEW\LIB\RELEASE\WIN32\GLEW32S.LIB
C:\USERS\USER\DESKTOP\DT170_GAMEPROJECT\TERM1\DUCKLINGSENGINE\DUCKLINGSENGINE\RESOURCE\SDL2-2.0.5\LIB\X86\SDL2_IMAGE.LIB
C:\PROGRAM FILES (X86)\WINDOWS KITS\10\LIB\10.0.16299.0\UM\X86\KERNEL32.LIB
C:\PROGRAM FILES (X86)\WINDOWS KITS\10\LIB\10.0.16299.0\UM\X86\USER32.LIB
C:\PROGRAM FILES (X86)\WINDOWS KITS\10\LIB\10.0.16299.0\UM\X86\GDI32.LIB
C:\PROGRAM FILES (X86)\WINDOWS KITS\10\LIB\10.0.16299.0\UM\X86\WINSPOOL.LIB
C:\PROGRAM FILES (X86)\WINDOWS KITS\10\LIB\10.0.16299.0\UM\X86\COMDLG32.LIB
C:\PROGRAM FILES (X86)\WINDOWS KITS\10\LIB\10.0.16299.0\UM\X86\ADVAPI32.LIB
C:\PROGRAM FILES (X86)\WINDOWS KITS\10\LIB\10.0.16299.0\UM\X86\SHELL32.LIB
C:\PROGRAM FILES (X86)\WINDOWS KITS\10\LIB\10.0.16299.0\UM\X86\OLE32.LIB
C:\PROGRAM FILES (X86)\WINDOWS KITS\10\LIB\10.0.16299.0\UM\X86\OLEAUT32.LIB
C:\PROGRAM FILES (X86)\WINDOWS KITS\10\LIB\10.0.16299.0\UM\X86\UUID.LIB
C:\PROGRAM FILES (X86)\WINDOWS KITS\10\LIB\10.0.16299.0\UM\X86\ODBC32.LIB
C:\PROGRAM FILES (X86)\WINDOWS KITS\10\LIB\10.0.16299.0\UM\X86\ODBCCP32.LIB
C:\USERS\USER\DESKTOP\DT170_GAMEPROJECT\TERM1\DUCKLINGSENGINE\DUCKLINGSENGINE\DUCKLINGSENGINE\RELEASE\PHYSICTESTSCENE.OBJ
C:\USERS\USER\DESKTOP\DT170_GAMEPROJECT\TERM1\DUCKLINGSENGINE\DUCKLINGSENGINE\DUCKLINGSENGINE\RELEASE\ZUMA.OBJ
C:\USERS\USER\DESKTOP\DT170_GAMEPROJECT\TERM1\DUCKLINGSENGINE\DUCKLINGSENGINE\DUCKLINGSENGINE\RELEASE\COLLIDER.OBJ
C:\USERS\USER\DESKTOP\DT170_GAMEPROJECT\TERM1\DUCKLINGSENGINE\DUCKLINGSENGINE\DUCKLINGSENGINE\RELEASE\ENGINE.OBJ
C:\USERS\USER\DESKTOP\DT170_GAMEPROJECT\TERM1\DUCKLINGSENGINE\DUCKLINGSENGINE\DUCKLINGSENGINE\RELEASE\OBJECT.OBJ
C:\USERS\USER\DESKTOP\DT170_GAMEPROJECT\TERM1\DUCKLINGSENGINE\DUCKLINGSENGINE\DUCKLINGSENGINE\RELEASE\TIME.OBJ
C:\USERS\USER\DESKTOP\DT170_GAMEPROJECT\TERM1\DUCKLINGSENGINE\DUCKLINGSENGINE\DUCKLINGSENGINE\RELEASE\UNIQUE.OBJ
C:\USERS\USER\DESKTOP\DT170_GAMEPROJECT\TERM1\DUCKLINGSENGINE\DUCKLINGSENGINE\DUCKLINGSENGINE\RELEASE\BOXCOLLIDER.OBJ
C:\USERS\USER\DESKTOP\DT170_GAMEPROJECT\TERM1\DUCKLINGSENGINE\DUCKLINGSENGINE\DUCKLINGSENGINE\RELEASE\CIRCLECOLLIDER.OBJ
C:\USERS\USER\DESKTOP\DT170_GAMEPROJECT\TERM1\DUCKLINGSENGINE\DUCKLINGSENGINE\DUCKLINGSENGINE\RELEASE\EDGECOLLIDER.OBJ
C:\USERS\USER\DESKTOP\DT170_GAMEPROJECT\TERM1\DUCKLINGSENGINE\DUCKLINGSENGINE\DUCKLINGSENGINE\RELEASE\GAMEOBJECT.OBJ
C:\USERS\USER\DESKTOP\DT170_GAMEPROJECT\TERM1\DUCKLINGSENGINE\DUCKLINGSENGINE\DUCKLINGSENGINE\RELEASE\RIGIDBODY.OBJ
C:\USERS\USER\DESKTOP\DT170_GAMEPROJECT\TERM1\DUCKLINGSENGINE\DUCKLINGSENGINE\DUCKLINGSENGINE\RELEASE\TRANSFORM.OBJ
C:\USERS\USER\DESKTOP\DT170_GAMEPROJECT\TERM1\DUCKLINGSENGINE\DUCKLINGSENGINE\DUCKLINGSENGINE\RELEASE\MAIN.OBJ
C:\USERS\USER\DESKTOP\DT170_GAMEPROJECT\TERM1\DUCKLINGSENGINE\DUCKLINGSENGINE\DUCKLINGSENGINE\RELEASE\ASSETMANAGER.OBJ
C:\USERS\USER\DESKTOP\DT170_GAMEPROJECT\TERM1\DUCKLINGSENGINE\DUCKLINGSENGINE\DUCKLINGSENGINE\RELEASE\COLLIDERMANAGER.OBJ
C:\USERS\USER\DESKTOP\DT170_GAMEPROJECT\TERM1\DUCKLINGSENGINE\DUCKLINGSENGINE\DUCKLINGSENGINE\RELEASE\ENTITYMANAGER.OBJ
C:\USERS\USER\DESKTOP\DT170_GAMEPROJECT\TERM1\DUCKLINGSENGINE\DUCKLINGSENGINE\DUCKLINGSENGINE\RELEASE\INPUT.OBJ
C:\USERS\USER\DESKTOP\DT170_GAMEPROJECT\TERM1\DUCKLINGSENGINE\DUCKLINGSENGINE\DUCKLINGSENGINE\RELEASE\SCENEMANAGER.OBJ
C:\USERS\USER\DESKTOP\DT170_GAMEPROJECT\TERM1\DUCKLINGSENGINE\DUCKLINGSENGINE\DUCKLINGSENGINE\RELEASE\SPRITEMANAGER.OBJ
C:\WINDOWS\GLOBALIZATION\SORTING\SORTDEFAULT.NLS
C:\PROGRAM FILES (X86)\MICROSOFT VISUAL STUDIO\2017\COMMUNITY\VC\TOOLS\MSVC\14.16.27023\BIN\HOSTX86\X86\C2.DLL
C:\PROGRAM FILES (X86)\MICROSOFT VISUAL STUDIO\2017\COMMUNITY\VC\TOOLS\MSVC\14.16.27023\LIB\X86\MSVCPRT.LIB
C:\PROGRAM FILES (X86)\MICROSOFT VISUAL STUDIO\2017\COMMUNITY\VC\TOOLS\MSVC\14.16.27023\LIB\X86\MSVCRT.LIB
C:\PROGRAM FILES (X86)\MICROSOFT VISUAL STUDIO\2017\COMMUNITY\VC\TOOLS\MSVC\14.16.27023\LIB\X86\OLDNAMES.LIB
C:\PROGRAM FILES (X86)\MICROSOFT VISUAL STUDIO\2017\COMMUNITY\VC\TOOLS\MSVC\14.16.27023\LIB\X86\VCRUNTIME.LIB
C:\PROGRAM FILES (X86)\WINDOWS KITS\10\LIB\10.0.16299.0\UCRT\X86\UCRT.LIB
C:\WINDOWS\SYSTEM32\TZRES.DLL
C:\PROGRAM FILES (X86)\MICROSOFT VISUAL STUDIO\2017\COMMUNITY\VC\TOOLS\MSVC\14.16.27023\BIN\HOSTX86\X86\1033\LINKUI.DLL
C:\PROGRAM FILES (X86)\WINDOWS KITS\10\BIN\10.0.16299.0\X86\RC.EXE
C:\PROGRAM FILES (X86)\MICROSOFT VISUAL STUDIO\2017\COMMUNITY\VC\TOOLS\MSVC\14.16.27023\BIN\HOSTX86\X86\CVTRES.EXE
