^C:\USERS\USER\DESKTOP\DT170_GAMEPROJECT\TERM1\DUCKLINGSENGINE\DUCKLINGSENGINE\DUCKLINGSENGINE\DEBUG\ASSETMANAGER.OBJ|C:\USERS\USER\DESKTOP\DT170_GAMEPROJECT\TERM1\DUCKLINGSENGINE\DUCKLINGSENGINE\DUCKLINGSENGINE\DEBUG\BOXCOLLIDER.OBJ|C:\USERS\USER\DESKTOP\DT170_GAMEPROJECT\TERM1\DUCKLINGSENGINE\DUCKLINGSENGINE\DUCKLINGSENGINE\DEBUG\CIRCLECOLLIDER.OBJ|C:\USERS\USER\DESKTOP\DT170_GAMEPROJECT\TERM1\DUCKLINGSENGINE\DUCKLINGSENGINE\DUCKLINGSENGINE\DEBUG\COLLIDER.OBJ|C:\USERS\USER\DESKTOP\DT170_GAMEPROJECT\TERM1\DUCKLINGSENGINE\DUCKLINGSENGINE\DUCKLINGSENGINE\DEBUG\COLLIDERMANAGER.OBJ|C:\USERS\USER\DESKTOP\DT170_GAMEPROJECT\TERM1\DUCKLINGSENGINE\DUCKLINGSENGINE\DUCKLINGSENGINE\DEBUG\EDGECOLLIDER.OBJ|C:\USERS\USER\DESKTOP\DT170_GAMEPROJECT\TERM1\DUCKLINGSENGINE\DUCKLINGSENGINE\DUCKLINGSENGINE\DEBUG\ENGINE.OBJ|C:\USERS\USER\DESKTOP\DT170_GAMEPROJECT\TERM1\DUCKLINGSENGINE\DUCKLINGSENGINE\DUCKLINGSENGINE\DEBUG\ENTITYMANAGER.OBJ|C:\USERS\USER\DESKTOP\DT170_GAMEPROJECT\TERM1\DUCKLINGSENGINE\DUCKLINGSENGINE\DUCKLINGSENGINE\DEBUG\GAMEOBJECT.OBJ|C:\USERS\USER\DESKTOP\DT170_GAMEPROJECT\TERM1\DUCKLINGSENGINE\DUCKLINGSENGINE\DUCKLINGSENGINE\DEBUG\INPUT.OBJ|C:\USERS\USER\DESKTOP\DT170_GAMEPROJECT\TERM1\DUCKLINGSENGINE\DUCKLINGSENGINE\DUCKLINGSENGINE\DEBUG\MAIN.OBJ|C:\USERS\USER\DESKTOP\DT170_GAMEPROJECT\TERM1\DUCKLINGSENGINE\DUCKLINGSENGINE\DUCKLINGSENGINE\DEBUG\OBJECT.OBJ|C:\USERS\USER\DESKTOP\DT170_GAMEPROJECT\TERM1\DUCKLINGSENGINE\DUCKLINGSENGINE\DUCKLINGSENGINE\DEBUG\PHYSICTESTSCENE.OBJ|C:\USERS\USER\DESKTOP\DT170_GAMEPROJECT\TERM1\DUCKLINGSENGINE\DUCKLINGSENGINE\DUCKLINGSENGINE\DEBUG\RIGIDBODY.OBJ|C:\USERS\USER\DESKTOP\DT170_GAMEPROJECT\TERM1\DUCKLINGSENGINE\DUCKLINGSENGINE\DUCKLINGSENGINE\DEBUG\SCENEMANAGER.OBJ|C:\USERS\USER\DESKTOP\DT170_GAMEPROJECT\TERM1\DUCKLINGSENGINE\DUCKLINGSENGINE\DUCKLINGSENGINE\DEBUG\SPRITEMANAGER.OBJ|C:\USERS\USER\DESKTOP\DT170_GAMEPROJECT\TERM1\DUCKLINGSENGINE\DUCKLINGSENGINE\DUCKLINGSENGINE\DEBUG\TIME.OBJ|C:\USERS\USER\DESKTOP\DT170_GAMEPROJECT\TERM1\DUCKLINGSENGINE\DUCKLINGSENGINE\DUCKLINGSENGINE\DEBUG\TRANSFORM.OBJ|C:\USERS\USER\DESKTOP\DT170_GAMEPROJECT\TERM1\DUCKLINGSENGINE\DUCKLINGSENGINE\DUCKLINGSENGINE\DEBUG\UNIQUE.OBJ|C:\USERS\USER\DESKTOP\DT170_GAMEPROJECT\TERM1\DUCKLINGSENGINE\DUCKLINGSENGINE\DUCKLINGSENGINE\DEBUG\ZUMA.OBJ
C:\USERS\USER\DESKTOP\DT170_GAMEPROJECT\TERM1\DUCKLINGSENGINE\DUCKLINGSENGINE\RESOURCE\SDL2-2.0.5\LIB\X86\SDL2MAIN.LIB
C:\USERS\USER\DESKTOP\DT170_GAMEPROJECT\TERM1\DUCKLINGSENGINE\DUCKLINGSENGINE\RESOURCE\SDL2-2.0.5\LIB\X86\SDL2.LIB
C:\PROGRAM FILES (X86)\WINDOWS KITS\10\LIB\10.0.17763.0\UM\X86\OPENGL32.LIB
C:\USERS\USER\DESKTOP\DT170_GAMEPROJECT\TERM1\DUCKLINGSENGINE\DUCKLINGSENGINE\RESOURCE\GLEW\LIB\RELEASE\WIN32\GLEW32.LIB
C:\USERS\USER\DESKTOP\DT170_GAMEPROJECT\TERM1\DUCKLINGSENGINE\DUCKLINGSENGINE\RESOURCE\GLEW\LIB\RELEASE\WIN32\GLEW32S.LIB
C:\USERS\USER\DESKTOP\DT170_GAMEPROJECT\TERM1\DUCKLINGSENGINE\DUCKLINGSENGINE\RESOURCE\SDL2-2.0.5\LIB\X86\SDL2_IMAGE.LIB
C:\PROGRAM FILES (X86)\WINDOWS KITS\10\LIB\10.0.17763.0\UM\X86\KERNEL32.LIB
C:\PROGRAM FILES (X86)\WINDOWS KITS\10\LIB\10.0.17763.0\UM\X86\USER32.LIB
C:\PROGRAM FILES (X86)\WINDOWS KITS\10\LIB\10.0.17763.0\UM\X86\GDI32.LIB
C:\PROGRAM FILES (X86)\WINDOWS KITS\10\LIB\10.0.17763.0\UM\X86\WINSPOOL.LIB
C:\PROGRAM FILES (X86)\WINDOWS KITS\10\LIB\10.0.17763.0\UM\X86\COMDLG32.LIB
C:\PROGRAM FILES (X86)\WINDOWS KITS\10\LIB\10.0.17763.0\UM\X86\ADVAPI32.LIB
C:\PROGRAM FILES (X86)\WINDOWS KITS\10\LIB\10.0.17763.0\UM\X86\SHELL32.LIB
C:\PROGRAM FILES (X86)\WINDOWS KITS\10\LIB\10.0.17763.0\UM\X86\OLE32.LIB
C:\PROGRAM FILES (X86)\WINDOWS KITS\10\LIB\10.0.17763.0\UM\X86\OLEAUT32.LIB
C:\PROGRAM FILES (X86)\WINDOWS KITS\10\LIB\10.0.17763.0\UM\X86\UUID.LIB
C:\PROGRAM FILES (X86)\WINDOWS KITS\10\LIB\10.0.17763.0\UM\X86\ODBC32.LIB
C:\PROGRAM FILES (X86)\WINDOWS KITS\10\LIB\10.0.17763.0\UM\X86\ODBCCP32.LIB
C:\USERS\USER\DESKTOP\DT170_GAMEPROJECT\TERM1\DUCKLINGSENGINE\DUCKLINGSENGINE\DUCKLINGSENGINE\DEBUG\PHYSICTESTSCENE.OBJ
C:\USERS\USER\DESKTOP\DT170_GAMEPROJECT\TERM1\DUCKLINGSENGINE\DUCKLINGSENGINE\DUCKLINGSENGINE\DEBUG\ZUMA.OBJ
C:\USERS\USER\DESKTOP\DT170_GAMEPROJECT\TERM1\DUCKLINGSENGINE\DUCKLINGSENGINE\DUCKLINGSENGINE\DEBUG\COLLIDER.OBJ
C:\USERS\USER\DESKTOP\DT170_GAMEPROJECT\TERM1\DUCKLINGSENGINE\DUCKLINGSENGINE\DUCKLINGSENGINE\DEBUG\ENGINE.OBJ
C:\USERS\USER\DESKTOP\DT170_GAMEPROJECT\TERM1\DUCKLINGSENGINE\DUCKLINGSENGINE\DUCKLINGSENGINE\DEBUG\OBJECT.OBJ
C:\USERS\USER\DESKTOP\DT170_GAMEPROJECT\TERM1\DUCKLINGSENGINE\DUCKLINGSENGINE\DUCKLINGSENGINE\DEBUG\TIME.OBJ
C:\USERS\USER\DESKTOP\DT170_GAMEPROJECT\TERM1\DUCKLINGSENGINE\DUCKLINGSENGINE\DUCKLINGSENGINE\DEBUG\UNIQUE.OBJ
C:\USERS\USER\DESKTOP\DT170_GAMEPROJECT\TERM1\DUCKLINGSENGINE\DUCKLINGSENGINE\DUCKLINGSENGINE\DEBUG\BOXCOLLIDER.OBJ
C:\USERS\USER\DESKTOP\DT170_GAMEPROJECT\TERM1\DUCKLINGSENGINE\DUCKLINGSENGINE\DUCKLINGSENGINE\DEBUG\CIRCLECOLLIDER.OBJ
C:\USERS\USER\DESKTOP\DT170_GAMEPROJECT\TERM1\DUCKLINGSENGINE\DUCKLINGSENGINE\DUCKLINGSENGINE\DEBUG\EDGECOLLIDER.OBJ
C:\USERS\USER\DESKTOP\DT170_GAMEPROJECT\TERM1\DUCKLINGSENGINE\DUCKLINGSENGINE\DUCKLINGSENGINE\DEBUG\GAMEOBJECT.OBJ
C:\USERS\USER\DESKTOP\DT170_GAMEPROJECT\TERM1\DUCKLINGSENGINE\DUCKLINGSENGINE\DUCKLINGSENGINE\DEBUG\RIGIDBODY.OBJ
C:\USERS\USER\DESKTOP\DT170_GAMEPROJECT\TERM1\DUCKLINGSENGINE\DUCKLINGSENGINE\DUCKLINGSENGINE\DEBUG\TRANSFORM.OBJ
C:\USERS\USER\DESKTOP\DT170_GAMEPROJECT\TERM1\DUCKLINGSENGINE\DUCKLINGSENGINE\DUCKLINGSENGINE\DEBUG\MAIN.OBJ
C:\USERS\USER\DESKTOP\DT170_GAMEPROJECT\TERM1\DUCKLINGSENGINE\DUCKLINGSENGINE\DUCKLINGSENGINE\DEBUG\ASSETMANAGER.OBJ
C:\USERS\USER\DESKTOP\DT170_GAMEPROJECT\TERM1\DUCKLINGSENGINE\DUCKLINGSENGINE\DUCKLINGSENGINE\DEBUG\COLLIDERMANAGER.OBJ
C:\USERS\USER\DESKTOP\DT170_GAMEPROJECT\TERM1\DUCKLINGSENGINE\DUCKLINGSENGINE\DUCKLINGSENGINE\DEBUG\ENTITYMANAGER.OBJ
C:\USERS\USER\DESKTOP\DT170_GAMEPROJECT\TERM1\DUCKLINGSENGINE\DUCKLINGSENGINE\DUCKLINGSENGINE\DEBUG\INPUT.OBJ
C:\USERS\USER\DESKTOP\DT170_GAMEPROJECT\TERM1\DUCKLINGSENGINE\DUCKLINGSENGINE\DUCKLINGSENGINE\DEBUG\SCENEMANAGER.OBJ
C:\USERS\USER\DESKTOP\DT170_GAMEPROJECT\TERM1\DUCKLINGSENGINE\DUCKLINGSENGINE\DUCKLINGSENGINE\DEBUG\SPRITEMANAGER.OBJ
C:\WINDOWS\SYSTEM32\TZRES.DLL
C:\WINDOWS\GLOBALIZATION\SORTING\SORTDEFAULT.NLS
C:\PROGRAM FILES (X86)\MICROSOFT VISUAL STUDIO\2017\COMMUNITY\VC\TOOLS\MSVC\14.16.27023\LIB\X86\MSVCPRTD.LIB
C:\PROGRAM FILES (X86)\MICROSOFT VISUAL STUDIO\2017\COMMUNITY\VC\TOOLS\MSVC\14.16.27023\LIB\X86\MSVCRTD.LIB
C:\PROGRAM FILES (X86)\MICROSOFT VISUAL STUDIO\2017\COMMUNITY\VC\TOOLS\MSVC\14.16.27023\LIB\X86\OLDNAMES.LIB
C:\PROGRAM FILES (X86)\MICROSOFT VISUAL STUDIO\2017\COMMUNITY\VC\TOOLS\MSVC\14.16.27023\LIB\X86\VCRUNTIMED.LIB
C:\PROGRAM FILES (X86)\WINDOWS KITS\10\LIB\10.0.17763.0\UCRT\X86\UCRTD.LIB
