#Command: "C:\Program Files (x86)\Microsoft Visual Studio\2017\Community\VC\Tools\MSVC\14.16.27023\bin\HostX86\x86\link.exe" /ERRORREPORT:PROMPT @C:\Users\user\AppData\Local\Temp\tmp2b3030d814a84af689a534ed05a83d6b.rsp /incremental /nologo /fullbuild
^C:\USERS\USER\DESKTOP\DT230\DUCKLINGSENGINE\DUCKLINGSENGINE\DEBUG\ASSETMANAGER.OBJ|C:\USERS\USER\DESKTOP\DT230\DUCKLINGSENGINE\DUCKLINGSENGINE\DEBUG\DUCKSCENE.OBJ|C:\USERS\USER\DESKTOP\DT230\DUCKLINGSENGINE\DUCKLINGSENGINE\DEBUG\ENGINE.OBJ|C:\USERS\USER\DESKTOP\DT230\DUCKLINGSENGINE\DUCKLINGSENGINE\DEBUG\ENTITYMANAGER.OBJ|C:\USERS\USER\DESKTOP\DT230\DUCKLINGSENGINE\DUCKLINGSENGINE\DEBUG\GAMEOBJECT.OBJ|C:\USERS\USER\DESKTOP\DT230\DUCKLINGSENGINE\DUCKLINGSENGINE\DEBUG\INPUT.OBJ|C:\USERS\USER\DESKTOP\DT230\DUCKLINGSENGINE\DUCKLINGSENGINE\DEBUG\LEVEL_SANDBOX.OBJ|C:\USERS\USER\DESKTOP\DT230\DUCKLINGSENGINE\DUCKLINGSENGINE\DEBUG\MAIN.OBJ|C:\USERS\USER\DESKTOP\DT230\DUCKLINGSENGINE\DUCKLINGSENGINE\DEBUG\OBJECT.OBJ|C:\USERS\USER\DESKTOP\DT230\DUCKLINGSENGINE\DUCKLINGSENGINE\DEBUG\RIGIDBODY.OBJ|C:\USERS\USER\DESKTOP\DT230\DUCKLINGSENGINE\DUCKLINGSENGINE\DEBUG\SCENEMANAGER.OBJ|C:\USERS\USER\DESKTOP\DT230\DUCKLINGSENGINE\DUCKLINGSENGINE\DEBUG\TIME.OBJ|C:\USERS\USER\DESKTOP\DT230\DUCKLINGSENGINE\DUCKLINGSENGINE\DEBUG\TRANSFORM.OBJ
C:\USERS\USER\APPDATA\LOCAL\TEMP\LNK{6897E990-C1C1-47FE-BCD4-1E97C63BB213}.TMP
